{
    "name": "Universe",
    "description": "Space commerce and warfare",
    "version": "0.1.0",
    "url": "https://bitbucket.org/GCLprojecte/projectedaw",
    "options": {
        "linkNatives": "true",
        "attributesEmit": "true",
        "selleck": "true",
        "ignorePaths": [ "dist" ],
        "paths": "lib/*",
        "outdir": "../docs/api"
    }
}
